{
    "/js/app.js": "/js/app.js",
    "/css/app.css": "/css/app.css",
    "/js/fontawesome.js": "/js/fontawesome.js",
    "/css/style.css": "/css/style.css",
    "/css/dashboard.css": "/css/dashboard.css"
}
